{
    "desc_dim": 2,
    "n_sis_select": 1,
    "max_rung": 1,
    "n_residual": 1,
    "data_file": "../data_log_reg.csv",
    "data_file_relatice_to_json": true,
    "property_key": "Prop",
    "leave_out_frac": 0.05,
    "n_models_store": 1,
    "calc_type": "log_regression",
    "leave_out_inds": [0, 1, 2, 60, 61],
    "opset": ["add", "sub", "abs_diff", "mult", "div", "inv", "abs", "exp", "log", "sin", "cos", "sq", "cb", "six_pow", "sqrt", "cbrt", "neg_exp"],
    "param_opset": [],
    "fix_intercept": false
}
