{
    "desc_dim": 2,
    "n_sis_select": 10,
    "max_rung": 1,
    "n_residual": 5,
    "data_file": "../reparam_data.csv",
    "data_file_relatice_to_json": true,
    "property_key": "Prop",
    "leave_out_frac": 0.00,
    "n_models_store": 5,
    "n_rung_generate": 1,
    "leave_out_inds": [],
    "opset": ["sq", "cb"],
    "param_opset": [
        "add",
        "sub",
        "abs_diff",
        "mult",
        "div",
        "inv",
        "abs",
        "exp",
        "log",
        "sin",
        "cos",
        "sq",
        "cb",
        "six_pow",
        "sqrt",
        "cbrt",
        "neg_exp"
    ],
    "fix_intercept": true,
    "reparam_residual": true,
    "global_param_opt": false
}
