Sample,Task,Prop,A (m),B (s),C,D (Unitless)
1,X,1031303.34310437,40047.7725031033,81.6019767547866,12535.2818525271,-683.666065848847
2,X,207179.181972689,8273.93114052335,47.4359192293739,2518.19019867913,-1407.86160002623
3,X,594547.990034924,-24495.5390890833,46.3994727792424,7226.59341895378,-154.449699580799
4,X,1431871.75085735,-5975.17124802999,96.2922472869417,17404.1240046628,-383.63965153104
5,X,2132341.51391611,33545.2455355934,23.2389997524879,25918.2170844233,-2214.8717939546
6,X,1849456.85903214,-36585.1506450251,21.7653754396546,22479.8013103184,-499.788202406702
7,X,416377.473683951,47617.1641535909,53.9342164837372,5060.96052467702,-2002.28785563532
8,X,1834852.24383494,164.577549590314,55.7417291729005,22302.2848302114,-1462.8889504883
9,X,2030615.0021387,-25590.077352893,13.3180597514294,24681.7483092487,-267.582565811964
10,X,418204.906991729,-35631.266855653,67.830087711799,5083.17267158509,-2819.77637904098
11,X,1600764.65336791,24069.5603461085,91.2031527296231,19456.9890506716,-2706.92171287459
12,X,-237442.303891325,-28375.8492844066,76.6780058713539,-2886.10976641617,-1650.25772935281
13,X,389569.403019936,-17679.1039531987,93.7334723703787,4735.11289934218,-553.765889146761
14,X,1097874.59558522,25271.39171418,53.6965192771211,13344.4443174432,-1094.01486564295
15,X,896512.426133544,-16691.6898965759,19.4379065649528,10896.9207498079,-2899.60958857901
16,X,12475.3344165542,11073.3959911305,52.0025761588363,151.597422562947,-782.134708201617
17,X,643218.531288929,-33665.7156040407,29.7373317632719,7818.17572605823,-1080.66347038372
18,X,888098.246309737,-42864.1312633446,93.9228362331387,10794.6477981533,-1638.80485180208
19,X,1636015.66023612,-1874.52319024457,61.4904198919873,19885.4591582095,-2643.77032366468
20,X,1523022.28471858,-49138.4737863941,17.975585548934,18512.0435328828,-560.378442383903
21,X,-18066.9165614168,-35122.5184807359,6.32108929256205,-219.638541412487,-1004.04464422701
22,X,753574.994852389,-504.277781827623,64.3463985117791,9159.54014727008,-690.33547481712
23,X,484679.670507055,-47904.9616755848,34.793137673643,5891.16232922052,-2871.23133035778
24,X,1418886.29518641,40005.8303266016,89.663527446701,17246.2879576819,-1230.52218744124
25,X,746864.366592613,-29303.0557293284,63.1160346689987,9077.97355841423,-3078.94168258733
26,X,826676.469591929,31855.9700915967,12.4598774065994,10048.0763518243,-3214.1429201838
27,X,904870.905255709,-1370.05112198737,18.1776031280461,10998.5166695707,-1733.87235240405
28,X,1081673.04047048,46129.8007590074,65.8763747557873,13147.5171186325,-1237.15538447696
29,X,1602766.31102942,12215.0498178804,28.9863403535557,19481.3188655265,-2669.08606113272
30,X,848296.081366335,-8523.54146953082,14.4884132013553,10310.8591252139,-1070.59795231075
31,X,881987.050483579,-32109.023962203,59.952453510063,10720.3672326848,-1978.64149010475
32,X,1384967.83924126,31795.5231836559,46.3619825035018,16834.0147857661,-3214.77894538541
33,X,1435243.99308821,-41605.9821955878,61.1093419800895,17445.1130460068,-1581.87602287648
34,X,1482822.4415542,-49423.8250112063,57.7898783145655,18023.4211475179,-2245.35073430102
35,X,1159462.50457973,24974.6967563244,2.46710777290358,14093.035073862,-1653.30479641573
36,X,1385445.91552098,44300.000697173,14.1598975077974,16839.8257231643,-1154.39523418031
37,X,1078840.90378916,-33471.5314909414,86.4825835158785,13113.0929698841,-1772.81761496697
38,X,322072.318257427,-32616.3765208785,71.5517709413264,3914.69709752203,-1834.58611475719
39,X,1547503.57192612,15339.6613906795,78.8203546957091,18809.6094936362,-538.87662795121
40,X,1174714.5075073,38777.544632935,63.0951620300882,14278.4206242917,-380.323852794412
41,X,94875.3402808423,12249.6781769406,90.3127462736438,1153.15574346477,-1590.10909636815
42,X,362160.364120508,-49277.9984660007,8.3266338235128,4401.96060534147,-1423.02119058586
43,X,673617.378755157,21157.5642575089,40.4360003803782,8187.66864424759,-2304.57417593545
44,X,882351.052225793,44482.8684188695,60.148559750113,10724.7916131167,-3010.89784032583
45,X,22400.9390066318,17108.6417404538,68.2422016131663,272.24149001619,-1091.87923472037
46,X,1781136.79777257,30136.189144163,65.8784392884513,21649.382366535,-779.999951946907
47,X,621416.608280441,-31495.5881531396,67.4176383345993,7553.17699006137,-3091.37667023128
48,X,750411.885581194,42277.9111802948,52.7091601206799,9121.09305972893,-1213.67564944238
49,X,1525062.49801326,-20619.9327982041,18.5983023041602,18536.841985025,-518.413321644593
50,X,679068.208535292,42337.0868480189,55.8737535970023,8253.92257061978,-1337.41889839093
51,X,447826.687204506,-3841.47148699515,57.8803936758992,5443.22046731452,-2117.64647879144
52,X,336890.280723035,-25698.4911052116,26.2484582718796,4094.80695856079,-2304.9408398086
53,X,468079.149217039,-36421.9167980631,9.52225176867021,5689.38576313015,-2346.34809901136
54,X,1404060.53519045,10116.138294505,33.8807589471792,17066.0833189846,-2177.75555908996
55,X,1827150.95390431,33677.6712656449,65.3664484400669,22208.6767557623,-768.872566798946
56,X,-33394.4572217261,23643.588170146,95.3617653535894,-405.942240360551,-802.333589068958
57,X,1443453.59596531,48648.6785581152,83.107773775309,17544.8993990111,-1826.75004222983
58,X,1550858.36965351,39565.5654401456,28.6332188363784,18850.3865001573,-176.047021901582
59,X,329623.778660326,9384.94614690253,83.9023194218408,4006.48383865674,-1510.2742546313
60,X,596362.271476793,-7862.7530203713,84.8842436218459,7248.64570723748,-1125.70379322904
61,Y,-1747903.77060764,-15426.701719437,73.530132833494,12277.508278164,-2388.05382648639
62,Y,-602031.002716425,-26628.9177804096,56.1127291052339,4228.72153980883,-2494.38544516297
63,Y,-914915.654901957,-22908.9603476779,55.2235512174418,6426.47150794108,-3065.18336481344
64,Y,-1293976.98085175,44255.5466634393,24.3327718109724,9089.05662095335,-1530.79847762564
65,Y,-556992.07118952,44821.3470186639,63.0165978378747,3912.36115061704,-3240.22306333347
66,Y,-2294033.39637973,-44132.4823446645,42.5612469609221,16113.6068505302,-255.147829778129
67,Y,-1213629.16675478,-42539.8069752961,48.9584343155192,8524.68120454026,-164.586906089718
68,Y,292809.005099769,-49432.7543013633,80.507648968553,-2056.77244309559,-871.09190770659
69,Y,-2235342.64861732,-6632.95213361424,93.4293107228537,15701.3540037878,-2178.77545326323
70,Y,-3732932.41042696,-40485.6986880114,25.9765685287417,26220.6550555191,-598.407067002771
71,Y,-252210.474776827,-14427.735364365,59.6676061209021,1771.52829396117,-845.471004201544
72,Y,-98889.6656695742,-41488.1745504839,42.4820587894618,694.579325611127,-1299.98047519081
73,Y,-1370204.37668197,-21879.2550863842,34.7942407834795,9624.48958514065,-1954.71594115708
74,Y,-3104420.51726401,31704.4165180227,44.4564228685462,21805.8907533925,-977.750657934738
75,Y,-2388277.98822188,7800.82135026513,48.5821408939988,16775.5953738995,-2577.18311095899
76,Y,-724977.658463333,-44659.6170999659,35.6876655675306,5092.31777838026,-2837.25474789309
77,Y,-1794477.91392858,6521.923601348,88.7042922408313,12604.6522325595,-2393.39103443748
78,Y,-223213.115899978,28443.9701603649,37.3226807484787,1567.84638066104,-1284.75416736837
79,Y,423046.005849878,9502.16765496074,17.4038852841401,-2971.57718730938,-793.452569769765
80,Y,-3047818.61588223,7598.41423185622,90.0700126497531,21408.3102848147,-749.371738309082
81,Y,-2409342.6015377,35261.072039404,47.9286965191158,16923.5564603709,-3048.15567690909
82,Y,-742814.585466495,-29503.3166005498,7.75349725175401,5217.60709978568,-2729.9120626205
83,Y,-571579.430647006,-44941.8628170447,85.8317735174233,4014.82500929801,-1269.94347716121
84,Y,-2195610.2686634,48026.9824672444,3.47886888914346,15422.2676483873,-208.387321904327
85,Y,-964020.379427545,-5862.59066560875,32.3951971412924,6771.39065366773,-2348.00221246913
86,Y,-2102214.66994452,-1627.31398929461,65.1915191571454,14766.2426011092,-2448.65166476797
87,Y,-890649.179337315,-31734.0384124326,73.7172018923155,6256.02004752945,-586.069879271884
88,Y,-2207063.83218629,14835.6206610657,31.7102632894148,15502.7192420416,-1698.88417254839
89,Y,-749402.325380223,-49686.6769123602,49.3012898909983,5263.8803991841,-1176.36020313534
90,Y,-2494089.08559485,234.017339793194,43.1649546520338,17518.8293606888,-2223.27305100155
91,Y,-758480.09438593,-42219.6177653841,85.476183481532,5327.64404629679,-864.677157209562
92,Y,-2025827.98191011,2374.67279858794,33.5495503844189,14229.6907309965,-2868.43169850788
93,Y,-2354065.35735529,-48559.373111767,43.9360775681768,16535.2805868339,-1226.37195019107
94,Y,-1588621.54314025,-37866.8557345306,22.4186822710487,11158.6853894212,-2716.07040834036
95,Y,-3175419.95188679,-45432.4026527398,31.3118028803292,22304.6017131089,-666.77340835222
96,Y,-2152215.92330461,-26966.2051976371,0.258766409063485,15117.4590856704,-32.6895291544268
97,Y,-547157.630624095,-1300.97533450509,46.2515307967681,3843.28254500137,-2502.56292413987
98,Y,-2672876.70357122,28750.3814277021,7.66749583919236,18774.6605662742,-1875.23509974759
99,Y,-2080211.9597305,-40822.549051454,89.438883925997,14611.6921599612,-1948.30990769798
100,Y,-2578377.05246833,-2300.90575344433,65.926962237196,18110.8804765956,-2076.35142495637
