{
    "desc_dim": 2,
    "n_sis_select": 5,
    "max_rung": 1,
    "n_residual": 1,
    "data_file": "../data_class.csv",
    "data_file_relatice_to_json": true,
    "property_key": "prop",
    "leave_out_frac": 0.0,
    "n_models_store": 1,
    "n_rung_generate": 1,
    "calc_type": "classification",
    "opset": ["mult"],
    "param_opset" : [],
    "fix_intercept": false
}
